[
  {
    "type": 1,
    "label": "Caisse",
    "code": "531",
    "isDefault": true,
    "payments": [],
    "id": 1,
    "createdOn": "2020-03-18T23:31:51.761589+00:00",
    "lastModifiedOn": "2020-03-18T23:31:51.76159+00:00",
    "searchTerms": "Caisse 531"
  },
  {
    "type": 1,
    "label": "Banque",
    "code": "512",
    "isDefault": false,
    "payments": [],
    "id": 2,
    "createdOn": "2020-03-18T23:31:51.761589+00:00",
    "lastModifiedOn": "2020-03-18T23:31:51.76159+00:00",
    "searchTerms": "Banque 512"
  },
]