{
  "runtimeTarget": {
    "name": ".NETStandard,Version=v2.0/",
    "signature": ""
  },
  "compilationOptions": {},
  "targets": {
    ".NETStandard,Version=v2.0": {},
    ".NETStandard,Version=v2.0/": {
      "Axiobat.Persistence/1.0.0": {
        "dependencies": {
          "Axiobat.Application": "1.0.0",
          "Axiobat.Domain": "1.0.0",
          "Microsoft.AspNetCore.Identity.EntityFrameworkCore": "2.1.0",
          "Microsoft.EntityFrameworkCore": "2.1.0",
          "Microsoft.Extensions.DependencyInjection.Abstractions": "2.1.1",
          "NETStandard.Library": "2.0.3",
          "Newtonsoft.Json": "12.0.3",
          "Pomelo.EntityFrameworkCore.MySql": "2.1.0"
        },
        "runtime": {
          "Axiobat.Persistence.dll": {}
        }
      },
      "Application.Common/1.0.0.29": {
        "dependencies": {
          "Newtonsoft.Json": "12.0.3"
        },
        "runtime": {
          "lib/netstandard2.0/Application.Common.dll": {
            "assemblyVersion": "1.0.0.0",
            "fileVersion": "1.0.0.0"
          }
        }
      },
      "AutoMapper/9.0.0": {
        "dependencies": {
          "Microsoft.CSharp": "4.7.0",
          "System.Reflection.Emit": "4.3.0"
        },
        "runtime": {
          "lib/netstandard2.0/AutoMapper.dll": {
            "assemblyVersion": "9.0.0.0",
            "fileVersion": "9.0.0.0"
          }
        }
      },
      "AutoMapper.Extensions.Microsoft.DependencyInjection/7.0.0": {
        "dependencies": {
          "AutoMapper": "9.0.0",
          "Microsoft.Extensions.DependencyInjection.Abstractions": "2.1.1"
        },
        "runtime": {
          "lib/netstandard2.0/AutoMapper.Extensions.Microsoft.DependencyInjection.dll": {
            "assemblyVersion": "0.0.0.0",
            "fileVersion": "7.0.0.0"
          }
        }
      },
      "DnsClient/1.2.0": {
        "dependencies": {
          "System.Buffers": "4.5.0"
        },
        "runtime": {
          "lib/netstandard2.0/DnsClient.dll": {
            "assemblyVersion": "1.2.0.0",
            "fileVersion": "1.2.0.0"
          }
        }
      },
      "FluentValidation/8.6.1": {
        "dependencies": {
          "System.ComponentModel.Annotations": "4.5.0"
        },
        "runtime": {
          "lib/netstandard2.0/FluentValidation.dll": {
            "assemblyVersion": "8.0.0.0",
            "fileVersion": "8.6.1.0"
          }
        }
      },
      "Microsoft.AspNetCore.Authentication/2.1.0": {
        "dependencies": {
          "Microsoft.AspNetCore.Authentication.Core": "2.1.0",
          "Microsoft.AspNetCore.DataProtection": "2.1.0",
          "Microsoft.AspNetCore.Http": "2.1.0",
          "Microsoft.AspNetCore.Http.Extensions": "2.1.0",
          "Microsoft.Extensions.Logging.Abstractions": "2.1.0",
          "Microsoft.Extensions.Options": "2.1.0",
          "Microsoft.Extensions.WebEncoders": "2.1.0"
        },
        "runtime": {
          "lib/netstandard2.0/Microsoft.AspNetCore.Authentication.dll": {
            "assemblyVersion": "2.1.0.0",
            "fileVersion": "2.1.0.18136"
          }
        }
      },
      "Microsoft.AspNetCore.Authentication.Abstractions/2.1.0": {
        "dependencies": {
          "Microsoft.AspNetCore.Http.Abstractions": "2.1.0",
          "Microsoft.Extensions.Logging.Abstractions": "2.1.0",
          "Microsoft.Extensions.Options": "2.1.0"
        },
        "runtime": {
          "lib/netstandard2.0/Microsoft.AspNetCore.Authentication.Abstractions.dll": {
            "assemblyVersion": "2.1.0.0",
            "fileVersion": "2.1.0.18136"
          }
        }
      },
      "Microsoft.AspNetCore.Authentication.Cookies/2.1.0": {
        "dependencies": {
          "Microsoft.AspNetCore.Authentication": "2.1.0"
        },
        "runtime": {
          "lib/netstandard2.0/Microsoft.AspNetCore.Authentication.Cookies.dll": {
            "assemblyVersion": "2.1.0.0",
            "fileVersion": "2.1.0.18136"
          }
        }
      },
      "Microsoft.AspNetCore.Authentication.Core/2.1.0": {
        "dependencies": {
          "Microsoft.AspNetCore.Authentication.Abstractions": "2.1.0",
          "Microsoft.AspNetCore.Http": "2.1.0",
          "Microsoft.AspNetCore.Http.Extensions": "2.1.0"
        },
        "runtime": {
          "lib/netstandard2.0/Microsoft.AspNetCore.Authentication.Core.dll": {
            "assemblyVersion": "2.1.0.0",
            "fileVersion": "2.1.0.18136"
          }
        }
      },
      "Microsoft.AspNetCore.Cryptography.Internal/2.1.0": {
        "runtime": {
          "lib/netstandard2.0/Microsoft.AspNetCore.Cryptography.Internal.dll": {
            "assemblyVersion": "2.1.0.0",
            "fileVersion": "2.1.0.18136"
          }
        }
      },
      "Microsoft.AspNetCore.Cryptography.KeyDerivation/2.1.0": {
        "dependencies": {
          "Microsoft.AspNetCore.Cryptography.Internal": "2.1.0"
        },
        "runtime": {
          "lib/netstandard2.0/Microsoft.AspNetCore.Cryptography.KeyDerivation.dll": {
            "assemblyVersion": "2.1.0.0",
            "fileVersion": "2.1.0.18136"
          }
        }
      },
      "Microsoft.AspNetCore.DataProtection/2.1.0": {
        "dependencies": {
          "Microsoft.AspNetCore.Cryptography.Internal": "2.1.0",
          "Microsoft.AspNetCore.DataProtection.Abstractions": "2.1.0",
          "Microsoft.AspNetCore.Hosting.Abstractions": "2.1.0",
          "Microsoft.Extensions.DependencyInjection.Abstractions": "2.1.1",
          "Microsoft.Extensions.Logging.Abstractions": "2.1.0",
          "Microsoft.Extensions.Options": "2.1.0",
          "Microsoft.Win32.Registry": "4.5.0",
          "System.Security.Cryptography.Xml": "4.5.0",
          "System.Security.Principal.Windows": "4.5.0"
        },
        "runtime": {
          "lib/netstandard2.0/Microsoft.AspNetCore.DataProtection.dll": {
            "assemblyVersion": "2.1.0.0",
            "fileVersion": "2.1.0.18136"
          }
        }
      },
      "Microsoft.AspNetCore.DataProtection.Abstractions/2.1.0": {
        "runtime": {
          "lib/netstandard2.0/Microsoft.AspNetCore.DataProtection.Abstractions.dll": {
            "assemblyVersion": "2.1.0.0",
            "fileVersion": "2.1.0.18136"
          }
        }
      },
      "Microsoft.AspNetCore.Hosting.Abstractions/2.1.0": {
        "dependencies": {
          "Microsoft.AspNetCore.Hosting.Server.Abstractions": "2.1.0",
          "Microsoft.AspNetCore.Http.Abstractions": "2.1.0",
          "Microsoft.Extensions.Hosting.Abstractions": "2.1.0"
        },
        "runtime": {
          "lib/netstandard2.0/Microsoft.AspNetCore.Hosting.Abstractions.dll": {
            "assemblyVersion": "2.1.0.0",
            "fileVersion": "2.1.0.18136"
          }
        }
      },
      "Microsoft.AspNetCore.Hosting.Server.Abstractions/2.1.0": {
        "dependencies": {
          "Microsoft.AspNetCore.Http.Features": "2.1.0",
          "Microsoft.Extensions.Configuration.Abstractions": "2.1.0"
        },
        "runtime": {
          "lib/netstandard2.0/Microsoft.AspNetCore.Hosting.Server.Abstractions.dll": {
            "assemblyVersion": "2.1.0.0",
            "fileVersion": "2.1.0.18136"
          }
        }
      },
      "Microsoft.AspNetCore.Http/2.1.0": {
        "dependencies": {
          "Microsoft.AspNetCore.Http.Abstractions": "2.1.0",
          "Microsoft.AspNetCore.WebUtilities": "2.1.0",
          "Microsoft.Extensions.ObjectPool": "2.1.0",
          "Microsoft.Extensions.Options": "2.1.0",
          "Microsoft.Net.Http.Headers": "2.1.0"
        },
        "runtime": {
          "lib/netstandard2.0/Microsoft.AspNetCore.Http.dll": {
            "assemblyVersion": "2.1.0.0",
            "fileVersion": "2.1.0.18136"
          }
        }
      },
      "Microsoft.AspNetCore.Http.Abstractions/2.1.0": {
        "dependencies": {
          "Microsoft.AspNetCore.Http.Features": "2.1.0",
          "System.Text.Encodings.Web": "4.5.0"
        },
        "runtime": {
          "lib/netstandard2.0/Microsoft.AspNetCore.Http.Abstractions.dll": {
            "assemblyVersion": "2.1.0.0",
            "fileVersion": "2.1.0.18136"
          }
        }
      },
      "Microsoft.AspNetCore.Http.Extensions/2.1.0": {
        "dependencies": {
          "Microsoft.AspNetCore.Http.Abstractions": "2.1.0",
          "Microsoft.Extensions.FileProviders.Abstractions": "2.1.0",
          "Microsoft.Net.Http.Headers": "2.1.0",
          "System.Buffers": "4.5.0"
        },
        "runtime": {
          "lib/netstandard2.0/Microsoft.AspNetCore.Http.Extensions.dll": {
            "assemblyVersion": "2.1.0.0",
            "fileVersion": "2.1.0.18136"
          }
        }
      },
      "Microsoft.AspNetCore.Http.Features/2.1.0": {
        "dependencies": {
          "Microsoft.Extensions.Primitives": "2.1.0"
        },
        "runtime": {
          "lib/netstandard2.0/Microsoft.AspNetCore.Http.Features.dll": {
            "assemblyVersion": "2.1.0.0",
            "fileVersion": "2.1.0.18136"
          }
        }
      },
      "Microsoft.AspNetCore.Identity/2.1.0": {
        "dependencies": {
          "Microsoft.AspNetCore.Authentication.Cookies": "2.1.0",
          "Microsoft.AspNetCore.Cryptography.KeyDerivation": "2.1.0",
          "Microsoft.AspNetCore.Hosting.Abstractions": "2.1.0",
          "Microsoft.Extensions.Identity.Core": "2.1.0"
        },
        "runtime": {
          "lib/netstandard2.0/Microsoft.AspNetCore.Identity.dll": {
            "assemblyVersion": "2.1.0.0",
            "fileVersion": "2.1.0.18136"
          }
        }
      },
      "Microsoft.AspNetCore.Identity.EntityFrameworkCore/2.1.0": {
        "dependencies": {
          "Microsoft.AspNetCore.Identity": "2.1.0",
          "Microsoft.EntityFrameworkCore.Relational": "2.1.0",
          "Microsoft.Extensions.Identity.Stores": "2.1.0"
        },
        "runtime": {
          "lib/netstandard2.0/Microsoft.AspNetCore.Identity.EntityFrameworkCore.dll": {
            "assemblyVersion": "2.1.0.0",
            "fileVersion": "2.1.0.18136"
          }
        }
      },
      "Microsoft.AspNetCore.WebUtilities/2.1.0": {
        "dependencies": {
          "Microsoft.Net.Http.Headers": "2.1.0",
          "System.Text.Encodings.Web": "4.5.0"
        },
        "runtime": {
          "lib/netstandard2.0/Microsoft.AspNetCore.WebUtilities.dll": {
            "assemblyVersion": "2.1.0.0",
            "fileVersion": "2.1.0.18136"
          }
        }
      },
      "Microsoft.CSharp/4.7.0": {
        "runtime": {
          "lib/netstandard2.0/Microsoft.CSharp.dll": {
            "assemblyVersion": "4.0.5.0",
            "fileVersion": "4.700.19.56404"
          }
        }
      },
      "Microsoft.EntityFrameworkCore/2.1.0": {
        "dependencies": {
          "Microsoft.EntityFrameworkCore.Abstractions": "2.1.0",
          "Microsoft.EntityFrameworkCore.Analyzers": "2.1.0",
          "Microsoft.Extensions.Caching.Memory": "2.1.0",
          "Microsoft.Extensions.DependencyInjection": "2.1.0",
          "Microsoft.Extensions.Logging": "2.1.0",
          "Remotion.Linq": "2.2.0",
          "System.Collections.Immutable": "1.5.0",
          "System.ComponentModel.Annotations": "4.5.0",
          "System.Diagnostics.DiagnosticSource": "4.5.0",
          "System.Interactive.Async": "3.1.1"
        },
        "runtime": {
          "lib/netstandard2.0/Microsoft.EntityFrameworkCore.dll": {
            "assemblyVersion": "2.1.0.0",
            "fileVersion": "2.1.0.18136"
          }
        }
      },
      "Microsoft.EntityFrameworkCore.Abstractions/2.1.0": {
        "runtime": {
          "lib/netstandard2.0/Microsoft.EntityFrameworkCore.Abstractions.dll": {
            "assemblyVersion": "2.1.0.0",
            "fileVersion": "2.1.0.18136"
          }
        }
      },
      "Microsoft.EntityFrameworkCore.Analyzers/2.1.0": {},
      "Microsoft.EntityFrameworkCore.Design/2.1.0": {
        "dependencies": {
          "Microsoft.CSharp": "4.7.0",
          "Microsoft.EntityFrameworkCore.Relational": "2.1.0"
        },
        "runtime": {
          "lib/netstandard2.0/Microsoft.EntityFrameworkCore.Design.dll": {
            "assemblyVersion": "2.1.0.0",
            "fileVersion": "2.1.0.18136"
          }
        }
      },
      "Microsoft.EntityFrameworkCore.Relational/2.1.0": {
        "dependencies": {
          "Microsoft.EntityFrameworkCore": "2.1.0"
        },
        "runtime": {
          "lib/netstandard2.0/Microsoft.EntityFrameworkCore.Relational.dll": {
            "assemblyVersion": "2.1.0.0",
            "fileVersion": "2.1.0.18136"
          }
        }
      },
      "Microsoft.Extensions.Caching.Abstractions/2.1.0": {
        "dependencies": {
          "Microsoft.Extensions.Primitives": "2.1.0"
        },
        "runtime": {
          "lib/netstandard2.0/Microsoft.Extensions.Caching.Abstractions.dll": {
            "assemblyVersion": "2.1.0.0",
            "fileVersion": "2.1.0.18136"
          }
        }
      },
      "Microsoft.Extensions.Caching.Memory/2.1.0": {
        "dependencies": {
          "Microsoft.Extensions.Caching.Abstractions": "2.1.0",
          "Microsoft.Extensions.DependencyInjection.Abstractions": "2.1.1",
          "Microsoft.Extensions.Options": "2.1.0"
        },
        "runtime": {
          "lib/netstandard2.0/Microsoft.Extensions.Caching.Memory.dll": {
            "assemblyVersion": "2.1.0.0",
            "fileVersion": "2.1.0.18136"
          }
        }
      },
      "Microsoft.Extensions.Configuration/2.1.0": {
        "dependencies": {
          "Microsoft.Extensions.Configuration.Abstractions": "2.1.0"
        },
        "runtime": {
          "lib/netstandard2.0/Microsoft.Extensions.Configuration.dll": {
            "assemblyVersion": "2.1.0.0",
            "fileVersion": "2.1.0.18136"
          }
        }
      },
      "Microsoft.Extensions.Configuration.Abstractions/2.1.0": {
        "dependencies": {
          "Microsoft.Extensions.Primitives": "2.1.0"
        },
        "runtime": {
          "lib/netstandard2.0/Microsoft.Extensions.Configuration.Abstractions.dll": {
            "assemblyVersion": "2.1.0.0",
            "fileVersion": "2.1.0.18136"
          }
        }
      },
      "Microsoft.Extensions.Configuration.Binder/2.1.0": {
        "dependencies": {
          "Microsoft.Extensions.Configuration": "2.1.0"
        },
        "runtime": {
          "lib/netstandard2.0/Microsoft.Extensions.Configuration.Binder.dll": {
            "assemblyVersion": "2.1.0.0",
            "fileVersion": "2.1.0.18136"
          }
        }
      },
      "Microsoft.Extensions.DependencyInjection/2.1.0": {
        "dependencies": {
          "Microsoft.Extensions.DependencyInjection.Abstractions": "2.1.1"
        },
        "runtime": {
          "lib/netstandard2.0/Microsoft.Extensions.DependencyInjection.dll": {
            "assemblyVersion": "2.1.0.0",
            "fileVersion": "2.1.0.18136"
          }
        }
      },
      "Microsoft.Extensions.DependencyInjection.Abstractions/2.1.1": {
        "runtime": {
          "lib/netstandard2.0/Microsoft.Extensions.DependencyInjection.Abstractions.dll": {
            "assemblyVersion": "2.1.1.0",
            "fileVersion": "2.1.1.18157"
          }
        }
      },
      "Microsoft.Extensions.FileProviders.Abstractions/2.1.0": {
        "dependencies": {
          "Microsoft.Extensions.Primitives": "2.1.0"
        },
        "runtime": {
          "lib/netstandard2.0/Microsoft.Extensions.FileProviders.Abstractions.dll": {
            "assemblyVersion": "2.1.0.0",
            "fileVersion": "2.1.0.18136"
          }
        }
      },
      "Microsoft.Extensions.Hosting.Abstractions/2.1.0": {
        "dependencies": {
          "Microsoft.Extensions.Configuration.Abstractions": "2.1.0",
          "Microsoft.Extensions.DependencyInjection.Abstractions": "2.1.1",
          "Microsoft.Extensions.FileProviders.Abstractions": "2.1.0",
          "Microsoft.Extensions.Logging.Abstractions": "2.1.0"
        },
        "runtime": {
          "lib/netstandard2.0/Microsoft.Extensions.Hosting.Abstractions.dll": {
            "assemblyVersion": "2.1.0.0",
            "fileVersion": "2.1.0.18136"
          }
        }
      },
      "Microsoft.Extensions.Identity.Core/2.1.0": {
        "dependencies": {
          "Microsoft.AspNetCore.Cryptography.KeyDerivation": "2.1.0",
          "Microsoft.Extensions.Logging": "2.1.0",
          "Microsoft.Extensions.Options": "2.1.0",
          "System.ComponentModel.Annotations": "4.5.0"
        },
        "runtime": {
          "lib/netstandard2.0/Microsoft.Extensions.Identity.Core.dll": {
            "assemblyVersion": "2.1.0.0",
            "fileVersion": "2.1.0.18136"
          }
        }
      },
      "Microsoft.Extensions.Identity.Stores/2.1.0": {
        "dependencies": {
          "Microsoft.Extensions.Identity.Core": "2.1.0",
          "Microsoft.Extensions.Logging": "2.1.0",
          "System.ComponentModel.Annotations": "4.5.0"
        },
        "runtime": {
          "lib/netstandard2.0/Microsoft.Extensions.Identity.Stores.dll": {
            "assemblyVersion": "2.1.0.0",
            "fileVersion": "2.1.0.18136"
          }
        }
      },
      "Microsoft.Extensions.Logging/2.1.0": {
        "dependencies": {
          "Microsoft.Extensions.Configuration.Binder": "2.1.0",
          "Microsoft.Extensions.DependencyInjection.Abstractions": "2.1.1",
          "Microsoft.Extensions.Logging.Abstractions": "2.1.0",
          "Microsoft.Extensions.Options": "2.1.0"
        },
        "runtime": {
          "lib/netstandard2.0/Microsoft.Extensions.Logging.dll": {
            "assemblyVersion": "2.1.0.0",
            "fileVersion": "2.1.0.18136"
          }
        }
      },
      "Microsoft.Extensions.Logging.Abstractions/2.1.0": {
        "runtime": {
          "lib/netstandard2.0/Microsoft.Extensions.Logging.Abstractions.dll": {
            "assemblyVersion": "2.1.0.0",
            "fileVersion": "2.1.0.18136"
          }
        }
      },
      "Microsoft.Extensions.Logging.Configuration/2.1.0": {
        "dependencies": {
          "Microsoft.Extensions.Logging": "2.1.0",
          "Microsoft.Extensions.Options.ConfigurationExtensions": "2.1.0"
        },
        "runtime": {
          "lib/netstandard2.0/Microsoft.Extensions.Logging.Configuration.dll": {
            "assemblyVersion": "2.1.0.0",
            "fileVersion": "2.1.0.18136"
          }
        }
      },
      "Microsoft.Extensions.Logging.Console/2.1.0": {
        "dependencies": {
          "Microsoft.Extensions.Configuration.Abstractions": "2.1.0",
          "Microsoft.Extensions.Logging": "2.1.0",
          "Microsoft.Extensions.Logging.Configuration": "2.1.0"
        },
        "runtime": {
          "lib/netstandard2.0/Microsoft.Extensions.Logging.Console.dll": {
            "assemblyVersion": "2.1.0.0",
            "fileVersion": "2.1.0.18136"
          }
        }
      },
      "Microsoft.Extensions.ObjectPool/2.1.0": {
        "runtime": {
          "lib/netstandard2.0/Microsoft.Extensions.ObjectPool.dll": {
            "assemblyVersion": "2.1.0.0",
            "fileVersion": "2.1.0.18136"
          }
        }
      },
      "Microsoft.Extensions.Options/2.1.0": {
        "dependencies": {
          "Microsoft.Extensions.DependencyInjection.Abstractions": "2.1.1",
          "Microsoft.Extensions.Primitives": "2.1.0"
        },
        "runtime": {
          "lib/netstandard2.0/Microsoft.Extensions.Options.dll": {
            "assemblyVersion": "2.1.0.0",
            "fileVersion": "2.1.0.18136"
          }
        }
      },
      "Microsoft.Extensions.Options.ConfigurationExtensions/2.1.0": {
        "dependencies": {
          "Microsoft.Extensions.Configuration.Abstractions": "2.1.0",
          "Microsoft.Extensions.Configuration.Binder": "2.1.0",
          "Microsoft.Extensions.DependencyInjection.Abstractions": "2.1.1",
          "Microsoft.Extensions.Options": "2.1.0"
        },
        "runtime": {
          "lib/netstandard2.0/Microsoft.Extensions.Options.ConfigurationExtensions.dll": {
            "assemblyVersion": "2.1.0.0",
            "fileVersion": "2.1.0.18136"
          }
        }
      },
      "Microsoft.Extensions.Primitives/2.1.0": {
        "dependencies": {
          "System.Memory": "4.5.0",
          "System.Runtime.CompilerServices.Unsafe": "4.5.0"
        },
        "runtime": {
          "lib/netstandard2.0/Microsoft.Extensions.Primitives.dll": {
            "assemblyVersion": "2.1.0.0",
            "fileVersion": "2.1.0.18136"
          }
        }
      },
      "Microsoft.Extensions.WebEncoders/2.1.0": {
        "dependencies": {
          "Microsoft.Extensions.DependencyInjection.Abstractions": "2.1.1",
          "Microsoft.Extensions.Options": "2.1.0",
          "System.Text.Encodings.Web": "4.5.0"
        },
        "runtime": {
          "lib/netstandard2.0/Microsoft.Extensions.WebEncoders.dll": {
            "assemblyVersion": "2.1.0.0",
            "fileVersion": "2.1.0.18136"
          }
        }
      },
      "Microsoft.Net.Http.Headers/2.1.0": {
        "dependencies": {
          "Microsoft.Extensions.Primitives": "2.1.0",
          "System.Buffers": "4.5.0"
        },
        "runtime": {
          "lib/netstandard2.0/Microsoft.Net.Http.Headers.dll": {
            "assemblyVersion": "2.1.0.0",
            "fileVersion": "2.1.0.18136"
          }
        }
      },
      "Microsoft.NETCore.Platforms/1.1.0": {},
      "Microsoft.NETCore.Targets/1.1.0": {},
      "Microsoft.Win32.Registry/4.5.0": {
        "dependencies": {
          "System.Buffers": "4.5.0",
          "System.Memory": "4.5.0",
          "System.Security.AccessControl": "4.5.0",
          "System.Security.Principal.Windows": "4.5.0"
        },
        "runtime": {
          "lib/netstandard2.0/Microsoft.Win32.Registry.dll": {
            "assemblyVersion": "4.1.1.0",
            "fileVersion": "4.6.26515.6"
          }
        }
      },
      "MySqlConnector/0.42.1": {
        "dependencies": {
          "System.Buffers": "4.5.0",
          "System.Memory": "4.5.0",
          "System.Threading.Tasks.Extensions": "4.3.0"
        },
        "runtime": {
          "lib/netstandard2.0/MySqlConnector.dll": {
            "assemblyVersion": "0.42.1.0",
            "fileVersion": "0.42.1.0"
          }
        }
      },
      "NETStandard.Library/2.0.3": {
        "dependencies": {
          "Microsoft.NETCore.Platforms": "1.1.0"
        }
      },
      "Newtonsoft.Json/12.0.3": {
        "runtime": {
          "lib/netstandard2.0/Newtonsoft.Json.dll": {
            "assemblyVersion": "12.0.0.0",
            "fileVersion": "12.0.3.23909"
          }
        }
      },
      "Pomelo.EntityFrameworkCore.MySql/2.1.0": {
        "dependencies": {
          "Microsoft.EntityFrameworkCore.Design": "2.1.0",
          "Microsoft.EntityFrameworkCore.Relational": "2.1.0",
          "Microsoft.Extensions.Logging.Console": "2.1.0",
          "MySqlConnector": "0.42.1",
          "Pomelo.JsonObject": "1.1.1"
        },
        "runtime": {
          "lib/netstandard2.0/Pomelo.EntityFrameworkCore.MySql.dll": {
            "assemblyVersion": "2.1.0.0",
            "fileVersion": "2.1.0.0"
          }
        }
      },
      "Pomelo.JsonObject/1.1.1": {
        "dependencies": {
          "NETStandard.Library": "2.0.3",
          "Newtonsoft.Json": "12.0.3"
        },
        "runtime": {
          "lib/netstandard1.3/Pomelo.JsonObject.dll": {
            "assemblyVersion": "1.1.1.0",
            "fileVersion": "1.1.1.0"
          }
        }
      },
      "Remotion.Linq/2.2.0": {
        "dependencies": {
          "System.Collections": "4.3.0",
          "System.Diagnostics.Debug": "4.0.11",
          "System.Linq": "4.1.0",
          "System.Linq.Expressions": "4.1.0",
          "System.Linq.Queryable": "4.0.1",
          "System.ObjectModel": "4.0.12",
          "System.Reflection": "4.3.0",
          "System.Reflection.Extensions": "4.0.1",
          "System.Runtime": "4.3.0",
          "System.Runtime.Extensions": "4.1.0",
          "System.Threading": "4.0.11"
        },
        "runtime": {
          "lib/netstandard1.0/Remotion.Linq.dll": {
            "assemblyVersion": "2.2.0.0",
            "fileVersion": "2.2.0.30000"
          }
        }
      },
      "System.Buffers/4.5.0": {
        "runtime": {
          "lib/netstandard2.0/System.Buffers.dll": {
            "assemblyVersion": "4.0.3.0",
            "fileVersion": "4.6.26515.6"
          }
        }
      },
      "System.Collections/4.3.0": {
        "dependencies": {
          "Microsoft.NETCore.Platforms": "1.1.0",
          "Microsoft.NETCore.Targets": "1.1.0",
          "System.Runtime": "4.3.0"
        }
      },
      "System.Collections.Immutable/1.5.0": {
        "runtime": {
          "lib/netstandard2.0/System.Collections.Immutable.dll": {
            "assemblyVersion": "1.2.3.0",
            "fileVersion": "4.6.26515.6"
          }
        }
      },
      "System.ComponentModel.Annotations/4.5.0": {
        "runtime": {
          "lib/netstandard2.0/System.ComponentModel.Annotations.dll": {
            "assemblyVersion": "4.2.1.0",
            "fileVersion": "4.6.26515.6"
          }
        }
      },
      "System.Diagnostics.Debug/4.0.11": {
        "dependencies": {
          "Microsoft.NETCore.Platforms": "1.1.0",
          "Microsoft.NETCore.Targets": "1.1.0",
          "System.Runtime": "4.3.0"
        }
      },
      "System.Diagnostics.DiagnosticSource/4.5.0": {
        "runtime": {
          "lib/netstandard1.3/System.Diagnostics.DiagnosticSource.dll": {
            "assemblyVersion": "4.0.3.0",
            "fileVersion": "4.6.26515.6"
          }
        }
      },
      "System.Globalization/4.0.11": {
        "dependencies": {
          "Microsoft.NETCore.Platforms": "1.1.0",
          "Microsoft.NETCore.Targets": "1.1.0",
          "System.Runtime": "4.3.0"
        }
      },
      "System.Interactive.Async/3.1.1": {
        "dependencies": {
          "NETStandard.Library": "2.0.3"
        },
        "runtime": {
          "lib/netstandard1.3/System.Interactive.Async.dll": {
            "assemblyVersion": "3.0.3000.0",
            "fileVersion": "3.1.1.0"
          }
        }
      },
      "System.IO/4.3.0": {
        "dependencies": {
          "Microsoft.NETCore.Platforms": "1.1.0",
          "Microsoft.NETCore.Targets": "1.1.0",
          "System.Runtime": "4.3.0",
          "System.Text.Encoding": "4.3.0",
          "System.Threading.Tasks": "4.3.0"
        }
      },
      "System.Linq/4.1.0": {
        "dependencies": {
          "System.Collections": "4.3.0",
          "System.Diagnostics.Debug": "4.0.11",
          "System.Resources.ResourceManager": "4.0.1",
          "System.Runtime": "4.3.0",
          "System.Runtime.Extensions": "4.1.0"
        },
        "runtime": {
          "lib/netstandard1.6/System.Linq.dll": {
            "assemblyVersion": "4.1.0.0",
            "fileVersion": "1.0.24212.1"
          }
        }
      },
      "System.Linq.Expressions/4.1.0": {
        "dependencies": {
          "System.Collections": "4.3.0",
          "System.Diagnostics.Debug": "4.0.11",
          "System.Globalization": "4.0.11",
          "System.IO": "4.3.0",
          "System.Linq": "4.1.0",
          "System.ObjectModel": "4.0.12",
          "System.Reflection": "4.3.0",
          "System.Reflection.Emit": "4.3.0",
          "System.Reflection.Emit.ILGeneration": "4.3.0",
          "System.Reflection.Emit.Lightweight": "4.0.1",
          "System.Reflection.Extensions": "4.0.1",
          "System.Reflection.Primitives": "4.3.0",
          "System.Reflection.TypeExtensions": "4.1.0",
          "System.Resources.ResourceManager": "4.0.1",
          "System.Runtime": "4.3.0",
          "System.Runtime.Extensions": "4.1.0",
          "System.Threading": "4.0.11"
        },
        "runtime": {
          "lib/netstandard1.6/System.Linq.Expressions.dll": {
            "assemblyVersion": "4.1.0.0",
            "fileVersion": "1.0.24212.1"
          }
        }
      },
      "System.Linq.Queryable/4.0.1": {
        "dependencies": {
          "System.Collections": "4.3.0",
          "System.Diagnostics.Debug": "4.0.11",
          "System.Linq": "4.1.0",
          "System.Linq.Expressions": "4.1.0",
          "System.Reflection": "4.3.0",
          "System.Reflection.Extensions": "4.0.1",
          "System.Resources.ResourceManager": "4.0.1",
          "System.Runtime": "4.3.0"
        },
        "runtime": {
          "lib/netstandard1.3/System.Linq.Queryable.dll": {
            "assemblyVersion": "4.0.1.0",
            "fileVersion": "1.0.24212.1"
          }
        }
      },
      "System.Memory/4.5.0": {
        "dependencies": {
          "System.Buffers": "4.5.0",
          "System.Numerics.Vectors": "4.4.0",
          "System.Runtime.CompilerServices.Unsafe": "4.5.0"
        },
        "runtime": {
          "lib/netstandard2.0/System.Memory.dll": {
            "assemblyVersion": "4.0.1.0",
            "fileVersion": "4.6.26515.6"
          }
        }
      },
      "System.Numerics.Vectors/4.4.0": {
        "runtime": {
          "lib/netstandard2.0/System.Numerics.Vectors.dll": {
            "assemblyVersion": "4.1.3.0",
            "fileVersion": "4.6.25519.3"
          }
        }
      },
      "System.ObjectModel/4.0.12": {
        "dependencies": {
          "System.Collections": "4.3.0",
          "System.Diagnostics.Debug": "4.0.11",
          "System.Resources.ResourceManager": "4.0.1",
          "System.Runtime": "4.3.0",
          "System.Threading": "4.0.11"
        },
        "runtime": {
          "lib/netstandard1.3/System.ObjectModel.dll": {
            "assemblyVersion": "4.0.12.0",
            "fileVersion": "1.0.24212.1"
          }
        }
      },
      "System.Reflection/4.3.0": {
        "dependencies": {
          "Microsoft.NETCore.Platforms": "1.1.0",
          "Microsoft.NETCore.Targets": "1.1.0",
          "System.IO": "4.3.0",
          "System.Reflection.Primitives": "4.3.0",
          "System.Runtime": "4.3.0"
        }
      },
      "System.Reflection.Emit/4.3.0": {
        "dependencies": {
          "System.IO": "4.3.0",
          "System.Reflection": "4.3.0",
          "System.Reflection.Emit.ILGeneration": "4.3.0",
          "System.Reflection.Primitives": "4.3.0",
          "System.Runtime": "4.3.0"
        },
        "runtime": {
          "lib/netstandard1.3/System.Reflection.Emit.dll": {
            "assemblyVersion": "4.0.2.0",
            "fileVersion": "4.6.24705.1"
          }
        }
      },
      "System.Reflection.Emit.ILGeneration/4.3.0": {
        "dependencies": {
          "System.Reflection": "4.3.0",
          "System.Reflection.Primitives": "4.3.0",
          "System.Runtime": "4.3.0"
        },
        "runtime": {
          "lib/netstandard1.3/System.Reflection.Emit.ILGeneration.dll": {
            "assemblyVersion": "4.0.2.0",
            "fileVersion": "4.6.24705.1"
          }
        }
      },
      "System.Reflection.Emit.Lightweight/4.0.1": {
        "dependencies": {
          "System.Reflection": "4.3.0",
          "System.Reflection.Emit.ILGeneration": "4.3.0",
          "System.Reflection.Primitives": "4.3.0",
          "System.Runtime": "4.3.0"
        },
        "runtime": {
          "lib/netstandard1.3/System.Reflection.Emit.Lightweight.dll": {
            "assemblyVersion": "4.0.1.0",
            "fileVersion": "1.0.24212.1"
          }
        }
      },
      "System.Reflection.Extensions/4.0.1": {
        "dependencies": {
          "Microsoft.NETCore.Platforms": "1.1.0",
          "Microsoft.NETCore.Targets": "1.1.0",
          "System.Reflection": "4.3.0",
          "System.Runtime": "4.3.0"
        }
      },
      "System.Reflection.Primitives/4.3.0": {
        "dependencies": {
          "Microsoft.NETCore.Platforms": "1.1.0",
          "Microsoft.NETCore.Targets": "1.1.0",
          "System.Runtime": "4.3.0"
        }
      },
      "System.Reflection.TypeExtensions/4.1.0": {
        "dependencies": {
          "System.Reflection": "4.3.0",
          "System.Runtime": "4.3.0"
        },
        "runtime": {
          "lib/netstandard1.5/System.Reflection.TypeExtensions.dll": {
            "assemblyVersion": "4.1.0.0",
            "fileVersion": "1.0.24212.1"
          }
        }
      },
      "System.Resources.ResourceManager/4.0.1": {
        "dependencies": {
          "Microsoft.NETCore.Platforms": "1.1.0",
          "Microsoft.NETCore.Targets": "1.1.0",
          "System.Globalization": "4.0.11",
          "System.Reflection": "4.3.0",
          "System.Runtime": "4.3.0"
        }
      },
      "System.Runtime/4.3.0": {
        "dependencies": {
          "Microsoft.NETCore.Platforms": "1.1.0",
          "Microsoft.NETCore.Targets": "1.1.0"
        }
      },
      "System.Runtime.CompilerServices.Unsafe/4.5.0": {
        "runtime": {
          "lib/netstandard2.0/System.Runtime.CompilerServices.Unsafe.dll": {
            "assemblyVersion": "4.0.4.0",
            "fileVersion": "0.0.0.0"
          }
        }
      },
      "System.Runtime.Extensions/4.1.0": {
        "dependencies": {
          "Microsoft.NETCore.Platforms": "1.1.0",
          "Microsoft.NETCore.Targets": "1.1.0",
          "System.Runtime": "4.3.0"
        }
      },
      "System.Security.AccessControl/4.5.0": {
        "dependencies": {
          "System.Security.Principal.Windows": "4.5.0"
        },
        "runtime": {
          "lib/netstandard2.0/System.Security.AccessControl.dll": {
            "assemblyVersion": "4.1.1.0",
            "fileVersion": "4.6.26515.6"
          }
        }
      },
      "System.Security.Cryptography.Cng/4.4.0": {
        "runtime": {
          "lib/netstandard2.0/System.Security.Cryptography.Cng.dll": {
            "assemblyVersion": "4.3.0.0",
            "fileVersion": "4.6.25519.3"
          }
        }
      },
      "System.Security.Cryptography.Pkcs/4.5.0": {
        "dependencies": {
          "System.Buffers": "4.5.0",
          "System.Memory": "4.5.0",
          "System.Security.Cryptography.Cng": "4.4.0"
        },
        "runtime": {
          "lib/netstandard2.0/System.Security.Cryptography.Pkcs.dll": {
            "assemblyVersion": "4.0.3.0",
            "fileVersion": "4.6.26515.6"
          }
        }
      },
      "System.Security.Cryptography.Xml/4.5.0": {
        "dependencies": {
          "System.Security.Cryptography.Pkcs": "4.5.0",
          "System.Security.Permissions": "4.5.0"
        },
        "runtime": {
          "lib/netstandard2.0/System.Security.Cryptography.Xml.dll": {
            "assemblyVersion": "4.0.1.0",
            "fileVersion": "4.6.26515.6"
          }
        }
      },
      "System.Security.Permissions/4.5.0": {
        "dependencies": {
          "System.Security.AccessControl": "4.5.0"
        },
        "runtime": {
          "lib/netstandard2.0/System.Security.Permissions.dll": {
            "assemblyVersion": "4.0.1.0",
            "fileVersion": "4.6.26515.6"
          }
        }
      },
      "System.Security.Principal.Windows/4.5.0": {
        "runtime": {
          "lib/netstandard2.0/System.Security.Principal.Windows.dll": {
            "assemblyVersion": "4.1.1.0",
            "fileVersion": "4.6.26515.6"
          }
        }
      },
      "System.Text.Encoding/4.3.0": {
        "dependencies": {
          "Microsoft.NETCore.Platforms": "1.1.0",
          "Microsoft.NETCore.Targets": "1.1.0",
          "System.Runtime": "4.3.0"
        }
      },
      "System.Text.Encodings.Web/4.5.0": {
        "runtime": {
          "lib/netstandard2.0/System.Text.Encodings.Web.dll": {
            "assemblyVersion": "4.0.3.0",
            "fileVersion": "4.6.26515.6"
          }
        }
      },
      "System.Threading/4.0.11": {
        "dependencies": {
          "System.Runtime": "4.3.0",
          "System.Threading.Tasks": "4.3.0"
        },
        "runtime": {
          "lib/netstandard1.3/System.Threading.dll": {
            "assemblyVersion": "4.0.11.0",
            "fileVersion": "1.0.24212.1"
          }
        }
      },
      "System.Threading.Tasks/4.3.0": {
        "dependencies": {
          "Microsoft.NETCore.Platforms": "1.1.0",
          "Microsoft.NETCore.Targets": "1.1.0",
          "System.Runtime": "4.3.0"
        }
      },
      "System.Threading.Tasks.Extensions/4.3.0": {
        "dependencies": {
          "System.Collections": "4.3.0",
          "System.Runtime": "4.3.0",
          "System.Threading.Tasks": "4.3.0"
        },
        "runtime": {
          "lib/netstandard1.0/System.Threading.Tasks.Extensions.dll": {
            "assemblyVersion": "4.1.0.0",
            "fileVersion": "4.6.24705.1"
          }
        }
      },
      "Axiobat.Application/1.0.0": {
        "dependencies": {
          "AutoMapper": "9.0.0",
          "AutoMapper.Extensions.Microsoft.DependencyInjection": "7.0.0",
          "Axiobat.Domain": "1.0.0",
          "DnsClient": "1.2.0",
          "FluentValidation": "8.6.1",
          "Microsoft.Extensions.DependencyInjection.Abstractions": "2.1.1",
          "Microsoft.Extensions.Identity.Core": "2.1.0"
        },
        "runtime": {
          "Axiobat.Application.dll": {}
        }
      },
      "Axiobat.Domain/1.0.0": {
        "dependencies": {
          "Application.Common": "1.0.0.29",
          "Microsoft.CSharp": "4.7.0",
          "Newtonsoft.Json": "12.0.3"
        },
        "runtime": {
          "Axiobat.Domain.dll": {}
        }
      }
    }
  },
  "libraries": {
    "Axiobat.Persistence/1.0.0": {
      "type": "project",
      "serviceable": false,
      "sha512": ""
    },
    "Application.Common/1.0.0.29": {
      "type": "package",
      "serviceable": true,
      "sha512": "sha512-hrIVXLFk730vgekCj2AYCji1iRB8x5N68Vz37SdI9p3ctYPhM7K7i+6Wk65XyPpdFRnkGiftMsdd7TLTNLLiPQ==",
      "path": "application.common/1.0.0.29",
      "hashPath": "application.common.1.0.0.29.nupkg.sha512"
    },
    "AutoMapper/9.0.0": {
      "type": "package",
      "serviceable": true,
      "sha512": "sha512-xCqvoxT4HIrNY/xlXG9W+BA/awdrhWvMTKTK/igkGSRbhOhpl3Q8O8Gxlhzjc9JsYqE7sS6AxgyuUUvZ6R5/Bw==",
      "path": "automapper/9.0.0",
      "hashPath": "automapper.9.0.0.nupkg.sha512"
    },
    "AutoMapper.Extensions.Microsoft.DependencyInjection/7.0.0": {
      "type": "package",
      "serviceable": true,
      "sha512": "sha512-szI4yeRIM7GWe9JyekW0dKYehPB0t6M+I55fPeCebN6PhS7zQZa0eG3bgOnOx+eP3caSNoE7KEJs2rk7MLsh8w==",
      "path": "automapper.extensions.microsoft.dependencyinjection/7.0.0",
      "hashPath": "automapper.extensions.microsoft.dependencyinjection.7.0.0.nupkg.sha512"
    },
    "DnsClient/1.2.0": {
      "type": "package",
      "serviceable": true,
      "sha512": "sha512-P34wUkeqU4FoQiOMV8OjpdeDZKs4d3r+VlHuKJ6eO5feiZgna3+9MF5orHRUn3DAv1g/HPE5hlkGucmxmsFfBw==",
      "path": "dnsclient/1.2.0",
      "hashPath": "dnsclient.1.2.0.nupkg.sha512"
    },
    "FluentValidation/8.6.1": {
      "type": "package",
      "serviceable": true,
      "sha512": "sha512-g0xw/YCVgJ1IYpBgKF9iuci/Arf6Dsq9H/WeeT9zaBpjrEA+Cr2GjWXHu1F0DKqVzp4J4hta4gGrRt6H4aESqQ==",
      "path": "fluentvalidation/8.6.1",
      "hashPath": "fluentvalidation.8.6.1.nupkg.sha512"
    },
    "Microsoft.AspNetCore.Authentication/2.1.0": {
      "type": "package",
      "serviceable": true,
      "sha512": "sha512-uYRxYAmYL0gEBihFo2cJ1HggHKs9XwhPTQglH5FyplqBQLFy2Oy1VFyTDlmLAue4chj+1qKt0Ida/J1crtRiMA==",
      "path": "microsoft.aspnetcore.authentication/2.1.0",
      "hashPath": "microsoft.aspnetcore.authentication.2.1.0.nupkg.sha512"
    },
    "Microsoft.AspNetCore.Authentication.Abstractions/2.1.0": {
      "type": "package",
      "serviceable": true,
      "sha512": "sha512-7hfl2DQoATexr0OVw8PwJSNqnu9gsbSkuHkwmHdss5xXCuY2nIfsTjj2NoKeGtp6N94ECioAP78FUfFOMj+TTg==",
      "path": "microsoft.aspnetcore.authentication.abstractions/2.1.0",
      "hashPath": "microsoft.aspnetcore.authentication.abstractions.2.1.0.nupkg.sha512"
    },
    "Microsoft.AspNetCore.Authentication.Cookies/2.1.0": {
      "type": "package",
      "serviceable": true,
      "sha512": "sha512-Fo7DLSWI3RywisVegE30LmgreLU0/mo6rn+RO/4UIlckqZJAmxkzSufzYxJd0bVIQu28ytfEYh6lPxLJRcTzZQ==",
      "path": "microsoft.aspnetcore.authentication.cookies/2.1.0",
      "hashPath": "microsoft.aspnetcore.authentication.cookies.2.1.0.nupkg.sha512"
    },
    "Microsoft.AspNetCore.Authentication.Core/2.1.0": {
      "type": "package",
      "serviceable": true,
      "sha512": "sha512-NKbmBzPW2zTaZLNKkCIL7LMpr4XfXVOPJ5SNzikTe2PX3juLkupb/5oTF45wiw5srUbU6QD0cY9u3jgYUELwnQ==",
      "path": "microsoft.aspnetcore.authentication.core/2.1.0",
      "hashPath": "microsoft.aspnetcore.authentication.core.2.1.0.nupkg.sha512"
    },
    "Microsoft.AspNetCore.Cryptography.Internal/2.1.0": {
      "type": "package",
      "serviceable": true,
      "sha512": "sha512-oqKoj5d+zR7/R2T03jq69fJ5w48dJ3Yw+XO3ORJGIV7Vd4eJhwvAOpEQKC3vWyQIKZWEkndIxaWMbfODJY/vsQ==",
      "path": "microsoft.aspnetcore.cryptography.internal/2.1.0",
      "hashPath": "microsoft.aspnetcore.cryptography.internal.2.1.0.nupkg.sha512"
    },
    "Microsoft.AspNetCore.Cryptography.KeyDerivation/2.1.0": {
      "type": "package",
      "serviceable": true,
      "sha512": "sha512-13LH47Gj9SAY8BReIypBOQKT1Imlt1h11mbhk5rtI0s7R0jti7pjxZUKZEiVK8o9NUAGfL0yF6A2PXLRImBZ+w==",
      "path": "microsoft.aspnetcore.cryptography.keyderivation/2.1.0",
      "hashPath": "microsoft.aspnetcore.cryptography.keyderivation.2.1.0.nupkg.sha512"
    },
    "Microsoft.AspNetCore.DataProtection/2.1.0": {
      "type": "package",
      "serviceable": true,
      "sha512": "sha512-G+UoMHL0xiyFh30wkL7Bv/XL6eugTAKYhLPS53k1/Me1bYRwOOw+8VL/q0ppq3/yMzpHX+MkExaCTDlYl48FgA==",
      "path": "microsoft.aspnetcore.dataprotection/2.1.0",
      "hashPath": "microsoft.aspnetcore.dataprotection.2.1.0.nupkg.sha512"
    },
    "Microsoft.AspNetCore.DataProtection.Abstractions/2.1.0": {
      "type": "package",
      "serviceable": true,
      "sha512": "sha512-2+HVDhUqrnV9+EJNEewSy+Gk4hOVPzLPMpFDZI7kuH7NWxtbNkI6A6gT5lO2/kEPMyM8/iLWtohbOwjpC9rHVw==",
      "path": "microsoft.aspnetcore.dataprotection.abstractions/2.1.0",
      "hashPath": "microsoft.aspnetcore.dataprotection.abstractions.2.1.0.nupkg.sha512"
    },
    "Microsoft.AspNetCore.Hosting.Abstractions/2.1.0": {
      "type": "package",
      "serviceable": true,
      "sha512": "sha512-1TQgBfd/NPZLR2o/h6l5Cml2ZCF5hsyV4h9WEwWwAIavrbdTnaNozGGcTOd4AOgQvogMM9UM1ajflm9Cwd0jLQ==",
      "path": "microsoft.aspnetcore.hosting.abstractions/2.1.0",
      "hashPath": "microsoft.aspnetcore.hosting.abstractions.2.1.0.nupkg.sha512"
    },
    "Microsoft.AspNetCore.Hosting.Server.Abstractions/2.1.0": {
      "type": "package",
      "serviceable": true,
      "sha512": "sha512-YTKMi2vHX6P+WHEVpW/DS+eFHnwivCSMklkyamcK1ETtc/4j8H3VR0kgW8XIBqukNxhD8k5wYt22P7PhrWSXjQ==",
      "path": "microsoft.aspnetcore.hosting.server.abstractions/2.1.0",
      "hashPath": "microsoft.aspnetcore.hosting.server.abstractions.2.1.0.nupkg.sha512"
    },
    "Microsoft.AspNetCore.Http/2.1.0": {
      "type": "package",
      "serviceable": true,
      "sha512": "sha512-eAPryjDRH41EYY2sOMHCu+tHXLI6PUN1AsOPKst6GbiIoMi8wJCiPcE4h9418tKje1oUzmMc2Iz8fFPPVamfaw==",
      "path": "microsoft.aspnetcore.http/2.1.0",
      "hashPath": "microsoft.aspnetcore.http.2.1.0.nupkg.sha512"
    },
    "Microsoft.AspNetCore.Http.Abstractions/2.1.0": {
      "type": "package",
      "serviceable": true,
      "sha512": "sha512-vbFDyKsSYBnxl3+RABtN79b0vsTcG66fDY8vD6Nqvu9uLtSej70Q5NcbGlnN6bJpZci5orSdgFTHMhBywivDPg==",
      "path": "microsoft.aspnetcore.http.abstractions/2.1.0",
      "hashPath": "microsoft.aspnetcore.http.abstractions.2.1.0.nupkg.sha512"
    },
    "Microsoft.AspNetCore.Http.Extensions/2.1.0": {
      "type": "package",
      "serviceable": true,
      "sha512": "sha512-M8Gk5qrUu5nFV7yE3SZgATt/5B1a5Qs8ZnXXeO/Pqu68CEiBHJWc10sdGdO5guc3zOFdm7H966mVnpZtEX4vSA==",
      "path": "microsoft.aspnetcore.http.extensions/2.1.0",
      "hashPath": "microsoft.aspnetcore.http.extensions.2.1.0.nupkg.sha512"
    },
    "Microsoft.AspNetCore.Http.Features/2.1.0": {
      "type": "package",
      "serviceable": true,
      "sha512": "sha512-UmkUePxRjsQW0j5euFFscBwjvTu25b8+qIK/2fI3GvcqQ+mkwgbWNAT8b/Gkoei1m2bTWC07lSdutuRDPPLcJA==",
      "path": "microsoft.aspnetcore.http.features/2.1.0",
      "hashPath": "microsoft.aspnetcore.http.features.2.1.0.nupkg.sha512"
    },
    "Microsoft.AspNetCore.Identity/2.1.0": {
      "type": "package",
      "serviceable": true,
      "sha512": "sha512-Kfmeba2ruAJT0K9Xcpw0GXh1nmEO9K3a6iIuQle9YtrnHRayc+m4D/OvfzzhCh1GYqgX2vJU/s7b+u6glDuqAA==",
      "path": "microsoft.aspnetcore.identity/2.1.0",
      "hashPath": "microsoft.aspnetcore.identity.2.1.0.nupkg.sha512"
    },
    "Microsoft.AspNetCore.Identity.EntityFrameworkCore/2.1.0": {
      "type": "package",
      "serviceable": true,
      "sha512": "sha512-6wpb/OUcBysd2dBNPFwYXf5MfeZWl5nMd6mykpHgs/p7EZti/zjCU9HEkS5Yhw9twPakHGXT1jaAMOF7i4n1ug==",
      "path": "microsoft.aspnetcore.identity.entityframeworkcore/2.1.0",
      "hashPath": "microsoft.aspnetcore.identity.entityframeworkcore.2.1.0.nupkg.sha512"
    },
    "Microsoft.AspNetCore.WebUtilities/2.1.0": {
      "type": "package",
      "serviceable": true,
      "sha512": "sha512-xBy8JGXQ3tVSYzLl/LtN3c9EeB75khFSB2Kw2HWmF+McU0Ltva7R4JBRH0Rb4LgkcjYyyJdf+09PZalQFwsT+Q==",
      "path": "microsoft.aspnetcore.webutilities/2.1.0",
      "hashPath": "microsoft.aspnetcore.webutilities.2.1.0.nupkg.sha512"
    },
    "Microsoft.CSharp/4.7.0": {
      "type": "package",
      "serviceable": true,
      "sha512": "sha512-pTj+D3uJWyN3My70i2Hqo+OXixq3Os2D1nJ2x92FFo6sk8fYS1m1WLNTs0Dc1uPaViH0YvEEwvzddQ7y4rhXmA==",
      "path": "microsoft.csharp/4.7.0",
      "hashPath": "microsoft.csharp.4.7.0.nupkg.sha512"
    },
    "Microsoft.EntityFrameworkCore/2.1.0": {
      "type": "package",
      "serviceable": true,
      "sha512": "sha512-ryuuih0u0b8/6PTXrjJE/fdYzNojl6rICyApc7dueNnbAhzTG9rWreDbnPrpG27ueiYd6vyUvREGgjhoUg62Ow==",
      "path": "microsoft.entityframeworkcore/2.1.0",
      "hashPath": "microsoft.entityframeworkcore.2.1.0.nupkg.sha512"
    },
    "Microsoft.EntityFrameworkCore.Abstractions/2.1.0": {
      "type": "package",
      "serviceable": true,
      "sha512": "sha512-mGn4kvImpLhPm4A5rPnUzezkQUsDtH2tN54DsvU8L0x8JZVY0aH5HvM9QZJBEl5jOloTQqYi/UaMtx2Oa5bTAQ==",
      "path": "microsoft.entityframeworkcore.abstractions/2.1.0",
      "hashPath": "microsoft.entityframeworkcore.abstractions.2.1.0.nupkg.sha512"
    },
    "Microsoft.EntityFrameworkCore.Analyzers/2.1.0": {
      "type": "package",
      "serviceable": true,
      "sha512": "sha512-yjxFeGSRtdiNYGlBzFvWp6vgmHg6keq4NlIsMTtreSeqIM/4uISMrj4Uo+mK1srdmx28Yo7+fQtlLQQT6dJXHQ==",
      "path": "microsoft.entityframeworkcore.analyzers/2.1.0",
      "hashPath": "microsoft.entityframeworkcore.analyzers.2.1.0.nupkg.sha512"
    },
    "Microsoft.EntityFrameworkCore.Design/2.1.0": {
      "type": "package",
      "serviceable": true,
      "sha512": "sha512-cCquUWV6A0kJXG5gDaFP2qAU1IY1De1lO8rxBwQVvu026JAn+SwFFWZVbzpzeJwW0WjYnsXeKOAgJcYwhqdxUw==",
      "path": "microsoft.entityframeworkcore.design/2.1.0",
      "hashPath": "microsoft.entityframeworkcore.design.2.1.0.nupkg.sha512"
    },
    "Microsoft.EntityFrameworkCore.Relational/2.1.0": {
      "type": "package",
      "serviceable": true,
      "sha512": "sha512-k9IZWAjYo6OjKKCoXoj4VYCUNKTJvQF2qwAV+CDCy4Sr7YyPys/9bV/3Cbs4+IobSDLwBIEBlClsCK+YpnK+QQ==",
      "path": "microsoft.entityframeworkcore.relational/2.1.0",
      "hashPath": "microsoft.entityframeworkcore.relational.2.1.0.nupkg.sha512"
    },
    "Microsoft.Extensions.Caching.Abstractions/2.1.0": {
      "type": "package",
      "serviceable": true,
      "sha512": "sha512-R7uAb/JRwb9YQBB0qqLlX2qv4RBC/BqqIqFDqzvCjT0T2uPpbuTINLKGp+7uX2dbxjt3cpebSu5GvebeiKYpQA==",
      "path": "microsoft.extensions.caching.abstractions/2.1.0",
      "hashPath": "microsoft.extensions.caching.abstractions.2.1.0.nupkg.sha512"
    },
    "Microsoft.Extensions.Caching.Memory/2.1.0": {
      "type": "package",
      "serviceable": true,
      "sha512": "sha512-Jc1TrYtOxX9gsUXI4ZPVfPLI9aGjGTzVEs/qsBPw2GA+Td840YN4CvXCjgrLtWJckxl6KRNHgoYYBQgZZ/LTqg==",
      "path": "microsoft.extensions.caching.memory/2.1.0",
      "hashPath": "microsoft.extensions.caching.memory.2.1.0.nupkg.sha512"
    },
    "Microsoft.Extensions.Configuration/2.1.0": {
      "type": "package",
      "serviceable": true,
      "sha512": "sha512-SS8ce1GYQTkZoOq5bskqQ+m7xiXQjnKRiGfVNZkkX2SX0HpXNRsKnSUaywRRuCje3v2KT9xeacsM3J9/G2exsQ==",
      "path": "microsoft.extensions.configuration/2.1.0",
      "hashPath": "microsoft.extensions.configuration.2.1.0.nupkg.sha512"
    },
    "Microsoft.Extensions.Configuration.Abstractions/2.1.0": {
      "type": "package",
      "serviceable": true,
      "sha512": "sha512-lMmUjAKvY9r6QmxCS15iSb6ulhwnh0zp44NtnVJ+HIDLFmu4iej41U+dU58On8NRezmlgRXiQtLnBeZSzYNKQg==",
      "path": "microsoft.extensions.configuration.abstractions/2.1.0",
      "hashPath": "microsoft.extensions.configuration.abstractions.2.1.0.nupkg.sha512"
    },
    "Microsoft.Extensions.Configuration.Binder/2.1.0": {
      "type": "package",
      "serviceable": true,
      "sha512": "sha512-Fls0O54Ielz1DiVYpcmiUpeizN1iKGGI5yAWAoShfmUvMcQ8jAGOK1a+DaflHA5hN9IOKvmSos0yewDYAIY0ZA==",
      "path": "microsoft.extensions.configuration.binder/2.1.0",
      "hashPath": "microsoft.extensions.configuration.binder.2.1.0.nupkg.sha512"
    },
    "Microsoft.Extensions.DependencyInjection/2.1.0": {
      "type": "package",
      "serviceable": true,
      "sha512": "sha512-gqQviLfuA31PheEGi+XJoZc1bc9H9RsPa9Gq9XuDct7XGWSR9eVXjK5Sg7CSUPhTFHSuxUFY12wcTYLZ4zM1hg==",
      "path": "microsoft.extensions.dependencyinjection/2.1.0",
      "hashPath": "microsoft.extensions.dependencyinjection.2.1.0.nupkg.sha512"
    },
    "Microsoft.Extensions.DependencyInjection.Abstractions/2.1.1": {
      "type": "package",
      "serviceable": true,
      "sha512": "sha512-MgYpU5cwZohUMKKg3sbPhvGG+eAZ/59E9UwPwlrUkyXU+PGzqwZg9yyQNjhxuAWmoNoFReoemeCku50prYSGzA==",
      "path": "microsoft.extensions.dependencyinjection.abstractions/2.1.1",
      "hashPath": "microsoft.extensions.dependencyinjection.abstractions.2.1.1.nupkg.sha512"
    },
    "Microsoft.Extensions.FileProviders.Abstractions/2.1.0": {
      "type": "package",
      "serviceable": true,
      "sha512": "sha512-itv+7XBu58pxi8mykxx9cUO1OOVYe0jmQIZVSZVp5lOcLxB7sSV2bnHiI1RSu6Nxne/s6+oBla3ON5CCMSmwhQ==",
      "path": "microsoft.extensions.fileproviders.abstractions/2.1.0",
      "hashPath": "microsoft.extensions.fileproviders.abstractions.2.1.0.nupkg.sha512"
    },
    "Microsoft.Extensions.Hosting.Abstractions/2.1.0": {
      "type": "package",
      "serviceable": true,
      "sha512": "sha512-BpMaoBxdXr5VD0yk7rYN6R8lAU9X9JbvsPveNdKT+llIn3J5s4sxpWqaSG/NnzTzTLU5eJE5nrecTl7clg/7dQ==",
      "path": "microsoft.extensions.hosting.abstractions/2.1.0",
      "hashPath": "microsoft.extensions.hosting.abstractions.2.1.0.nupkg.sha512"
    },
    "Microsoft.Extensions.Identity.Core/2.1.0": {
      "type": "package",
      "serviceable": true,
      "sha512": "sha512-ANFe9HR9thO9CU9x8mc7h1uw75Aqz5uDe7xgGM6t2iBITEidLNhULzqPidI0xV2Mg54pdPMA8/vtS5FRLCQWgQ==",
      "path": "microsoft.extensions.identity.core/2.1.0",
      "hashPath": "microsoft.extensions.identity.core.2.1.0.nupkg.sha512"
    },
    "Microsoft.Extensions.Identity.Stores/2.1.0": {
      "type": "package",
      "serviceable": true,
      "sha512": "sha512-I5h21Va/V5in+UeEFxi9672OXogt0oVKM0IaAmPHNnCXLPsIHHnmuatAPaf7NFAwjTj3jM/57HpmEJzj0Jpbtg==",
      "path": "microsoft.extensions.identity.stores/2.1.0",
      "hashPath": "microsoft.extensions.identity.stores.2.1.0.nupkg.sha512"
    },
    "Microsoft.Extensions.Logging/2.1.0": {
      "type": "package",
      "serviceable": true,
      "sha512": "sha512-kuZbZMMHb7ibzhLdn9/R1+PAAFKntlF10tOw4loB8VuQkHvSrBE6IzW1rhBLsEdmLXOgi2zFbwcXFrxzSM6ybA==",
      "path": "microsoft.extensions.logging/2.1.0",
      "hashPath": "microsoft.extensions.logging.2.1.0.nupkg.sha512"
    },
    "Microsoft.Extensions.Logging.Abstractions/2.1.0": {
      "type": "package",
      "serviceable": true,
      "sha512": "sha512-GfD2VtvN9z1W+m6pZZe98yh9VWTSdNY2dZSxtca9uFIY6aBI6twvskMvLO/ktClBOTQmAov/7Em+IWFlHepa0A==",
      "path": "microsoft.extensions.logging.abstractions/2.1.0",
      "hashPath": "microsoft.extensions.logging.abstractions.2.1.0.nupkg.sha512"
    },
    "Microsoft.Extensions.Logging.Configuration/2.1.0": {
      "type": "package",
      "serviceable": true,
      "sha512": "sha512-nMAcTACzW37zc3f7n5fIYsRDXtjjQA2U/kiE4xmuSLn7coCIeDfFTpUhJ+wG/3vwb5f1lFWNpyXGyQdlUCIXUw==",
      "path": "microsoft.extensions.logging.configuration/2.1.0",
      "hashPath": "microsoft.extensions.logging.configuration.2.1.0.nupkg.sha512"
    },
    "Microsoft.Extensions.Logging.Console/2.1.0": {
      "type": "package",
      "serviceable": true,
      "sha512": "sha512-EXd6Wq8NC6/IgfRIhujTJAxFr0WWd/hAzLZaVfVUiAHSVGhz2rRrMJTiPoOYLo7qhfcDf3P+h2axfG23GcXITQ==",
      "path": "microsoft.extensions.logging.console/2.1.0",
      "hashPath": "microsoft.extensions.logging.console.2.1.0.nupkg.sha512"
    },
    "Microsoft.Extensions.ObjectPool/2.1.0": {
      "type": "package",
      "serviceable": true,
      "sha512": "sha512-tIbO45cohqexTJPXBubpwluycDT+6OWy2m7PukG37XMrtQ6Zv4AnoLrgUTaCmpWihSs5RZHKvThiAJFcBlR3AA==",
      "path": "microsoft.extensions.objectpool/2.1.0",
      "hashPath": "microsoft.extensions.objectpool.2.1.0.nupkg.sha512"
    },
    "Microsoft.Extensions.Options/2.1.0": {
      "type": "package",
      "serviceable": true,
      "sha512": "sha512-VOM1pPMi9+7/4Vc9aPLU8btHOBQy1+AvpqxLxFI2OVtqGv+1klPaV59g9R6aSt2U7ijfB3TjvAO4Tc/cn9/hxA==",
      "path": "microsoft.extensions.options/2.1.0",
      "hashPath": "microsoft.extensions.options.2.1.0.nupkg.sha512"
    },
    "Microsoft.Extensions.Options.ConfigurationExtensions/2.1.0": {
      "type": "package",
      "serviceable": true,
      "sha512": "sha512-w/MP147fSqlIcCymaNpLbjdJsFVkSJM9Sz+jbWMr1gKMDVxoOS8AuFjJkVyKU/eydYxHIR/K1Hn3wisJBW5gSg==",
      "path": "microsoft.extensions.options.configurationextensions/2.1.0",
      "hashPath": "microsoft.extensions.options.configurationextensions.2.1.0.nupkg.sha512"
    },
    "Microsoft.Extensions.Primitives/2.1.0": {
      "type": "package",
      "serviceable": true,
      "sha512": "sha512-gMwH6wgWOPfyfLfMLEP+ZF7/MSJq35e0xxKEYUjt8veEznY45nBVqdfI876+9SFQq2ChcqKf2UyYc2XYj2v27w==",
      "path": "microsoft.extensions.primitives/2.1.0",
      "hashPath": "microsoft.extensions.primitives.2.1.0.nupkg.sha512"
    },
    "Microsoft.Extensions.WebEncoders/2.1.0": {
      "type": "package",
      "serviceable": true,
      "sha512": "sha512-YwzwLadahZiEbqbDoAlKhAq/szBL05ZmIIlrfHjLsF9M3zppmWRKAOGjFalmwONxbZMl3OHUoAiPKShtieV0KA==",
      "path": "microsoft.extensions.webencoders/2.1.0",
      "hashPath": "microsoft.extensions.webencoders.2.1.0.nupkg.sha512"
    },
    "Microsoft.Net.Http.Headers/2.1.0": {
      "type": "package",
      "serviceable": true,
      "sha512": "sha512-c08F7C7BGgmjrq9cr7382pBRhcimBx24YOv4M4gtzMIuVKmxGoRr5r9A2Hke9v7Nx7zKKCysk6XpuZasZX4oeg==",
      "path": "microsoft.net.http.headers/2.1.0",
      "hashPath": "microsoft.net.http.headers.2.1.0.nupkg.sha512"
    },
    "Microsoft.NETCore.Platforms/1.1.0": {
      "type": "package",
      "serviceable": true,
      "sha512": "sha512-kz0PEW2lhqygehI/d6XsPCQzD7ff7gUJaVGPVETX611eadGsA3A877GdSlU0LRVMCTH/+P3o2iDTak+S08V2+A==",
      "path": "microsoft.netcore.platforms/1.1.0",
      "hashPath": "microsoft.netcore.platforms.1.1.0.nupkg.sha512"
    },
    "Microsoft.NETCore.Targets/1.1.0": {
      "type": "package",
      "serviceable": true,
      "sha512": "sha512-aOZA3BWfz9RXjpzt0sRJJMjAscAUm3Hoa4UWAfceV9UTYxgwZ1lZt5nO2myFf+/jetYQo4uTP7zS8sJY67BBxg==",
      "path": "microsoft.netcore.targets/1.1.0",
      "hashPath": "microsoft.netcore.targets.1.1.0.nupkg.sha512"
    },
    "Microsoft.Win32.Registry/4.5.0": {
      "type": "package",
      "serviceable": true,
      "sha512": "sha512-+FWlwd//+Tt56316p00hVePBCouXyEzT86Jb3+AuRotTND0IYn0OO3obs1gnQEs/txEnt+rF2JBGLItTG+Be6A==",
      "path": "microsoft.win32.registry/4.5.0",
      "hashPath": "microsoft.win32.registry.4.5.0.nupkg.sha512"
    },
    "MySqlConnector/0.42.1": {
      "type": "package",
      "serviceable": true,
      "sha512": "sha512-7jS8P+XOw+vS/reuwEEGhtAKvagiOEtOsu5/46Bnuiw+DgOjAFgMSojkiVaZi9DHcatP8jgmjY67iDGVZByQng==",
      "path": "mysqlconnector/0.42.1",
      "hashPath": "mysqlconnector.0.42.1.nupkg.sha512"
    },
    "NETStandard.Library/2.0.3": {
      "type": "package",
      "serviceable": true,
      "sha512": "sha512-st47PosZSHrjECdjeIzZQbzivYBJFv6P2nv4cj2ypdI204DO+vZ7l5raGMiX4eXMJ53RfOIg+/s4DHVZ54Nu2A==",
      "path": "netstandard.library/2.0.3",
      "hashPath": "netstandard.library.2.0.3.nupkg.sha512"
    },
    "Newtonsoft.Json/12.0.3": {
      "type": "package",
      "serviceable": true,
      "sha512": "sha512-6mgjfnRB4jKMlzHSl+VD+oUc1IebOZabkbyWj2RiTgWwYPPuaK1H97G1sHqGwPlS5npiF5Q0OrxN1wni2n5QWg==",
      "path": "newtonsoft.json/12.0.3",
      "hashPath": "newtonsoft.json.12.0.3.nupkg.sha512"
    },
    "Pomelo.EntityFrameworkCore.MySql/2.1.0": {
      "type": "package",
      "serviceable": true,
      "sha512": "sha512-n+yJ9QycBmoILRj14KeaEvPGiXCRTlLYNK53Ob5Q+5+FgmT8AUaHHDo9FxKfpWm6+C7M2HdHrUHmp4etWoFI4w==",
      "path": "pomelo.entityframeworkcore.mysql/2.1.0",
      "hashPath": "pomelo.entityframeworkcore.mysql.2.1.0.nupkg.sha512"
    },
    "Pomelo.JsonObject/1.1.1": {
      "type": "package",
      "serviceable": true,
      "sha512": "sha512-erkYG/OW1LloSwDFGeS9MvVjy1FLmaV3k8GK/GMR8D3sSDEylZogoLdLiaOFc92+zTen92rG6XGiioNacSlg0A==",
      "path": "pomelo.jsonobject/1.1.1",
      "hashPath": "pomelo.jsonobject.1.1.1.nupkg.sha512"
    },
    "Remotion.Linq/2.2.0": {
      "type": "package",
      "serviceable": true,
      "sha512": "sha512-fK/76UmpC0FXBlGDFVPLJHQlDLYnGC+XY3eoDgCgbtrhi0vzbXDQ3n/IYHhqSKqXQfGw/u04A1drWs7rFVkRjw==",
      "path": "remotion.linq/2.2.0",
      "hashPath": "remotion.linq.2.2.0.nupkg.sha512"
    },
    "System.Buffers/4.5.0": {
      "type": "package",
      "serviceable": true,
      "sha512": "sha512-pL2ChpaRRWI/p4LXyy4RgeWlYF2sgfj/pnVMvBqwNFr5cXg7CXNnWZWxrOONLg8VGdFB8oB+EG2Qw4MLgTOe+A==",
      "path": "system.buffers/4.5.0",
      "hashPath": "system.buffers.4.5.0.nupkg.sha512"
    },
    "System.Collections/4.3.0": {
      "type": "package",
      "serviceable": true,
      "sha512": "sha512-3Dcj85/TBdVpL5Zr+gEEBUuFe2icOnLalmEh9hfck1PTYbbyWuZgh4fmm2ysCLTrqLQw6t3TgTyJ+VLp+Qb+Lw==",
      "path": "system.collections/4.3.0",
      "hashPath": "system.collections.4.3.0.nupkg.sha512"
    },
    "System.Collections.Immutable/1.5.0": {
      "type": "package",
      "serviceable": true,
      "sha512": "sha512-EXKiDFsChZW0RjrZ4FYHu9aW6+P4MCgEDCklsVseRfhoO0F+dXeMSsMRAlVXIo06kGJ/zv+2w1a2uc2+kxxSaQ==",
      "path": "system.collections.immutable/1.5.0",
      "hashPath": "system.collections.immutable.1.5.0.nupkg.sha512"
    },
    "System.ComponentModel.Annotations/4.5.0": {
      "type": "package",
      "serviceable": true,
      "sha512": "sha512-UxYQ3FGUOtzJ7LfSdnYSFd7+oEv6M8NgUatatIN2HxNtDdlcvFAf+VIq4Of9cDMJEJC0aSRv/x898RYhB4Yppg==",
      "path": "system.componentmodel.annotations/4.5.0",
      "hashPath": "system.componentmodel.annotations.4.5.0.nupkg.sha512"
    },
    "System.Diagnostics.Debug/4.0.11": {
      "type": "package",
      "serviceable": true,
      "sha512": "sha512-w5U95fVKHY4G8ASs/K5iK3J5LY+/dLFd4vKejsnI/ZhBsWS9hQakfx3Zr7lRWKg4tAw9r4iktyvsTagWkqYCiw==",
      "path": "system.diagnostics.debug/4.0.11",
      "hashPath": "system.diagnostics.debug.4.0.11.nupkg.sha512"
    },
    "System.Diagnostics.DiagnosticSource/4.5.0": {
      "type": "package",
      "serviceable": true,
      "sha512": "sha512-eIHRELiYDQvsMToML81QFkXEEYXUSUT2F28t1SGrevWqP+epFdw80SyAXIKTXOHrIEXReFOEnEr7XlGiC2GgOg==",
      "path": "system.diagnostics.diagnosticsource/4.5.0",
      "hashPath": "system.diagnostics.diagnosticsource.4.5.0.nupkg.sha512"
    },
    "System.Globalization/4.0.11": {
      "type": "package",
      "serviceable": true,
      "sha512": "sha512-B95h0YLEL2oSnwF/XjqSWKnwKOy/01VWkNlsCeMTFJLLabflpGV26nK164eRs5GiaRSBGpOxQ3pKoSnnyZN5pg==",
      "path": "system.globalization/4.0.11",
      "hashPath": "system.globalization.4.0.11.nupkg.sha512"
    },
    "System.Interactive.Async/3.1.1": {
      "type": "package",
      "serviceable": true,
      "sha512": "sha512-hZccYiIE5RS1/J9Tb/BNtosAGVggdlsJm4Ojdu+gDV0p4AIi+LUfUogMKkRacljQEJd2AG6vYzvcjhQFkqoZmw==",
      "path": "system.interactive.async/3.1.1",
      "hashPath": "system.interactive.async.3.1.1.nupkg.sha512"
    },
    "System.IO/4.3.0": {
      "type": "package",
      "serviceable": true,
      "sha512": "sha512-3qjaHvxQPDpSOYICjUoTsmoq5u6QJAFRUITgeT/4gqkF1bajbSmb1kwSxEA8AHlofqgcKJcM8udgieRNhaJ5Cg==",
      "path": "system.io/4.3.0",
      "hashPath": "system.io.4.3.0.nupkg.sha512"
    },
    "System.Linq/4.1.0": {
      "type": "package",
      "serviceable": true,
      "sha512": "sha512-bQ0iYFOQI0nuTnt+NQADns6ucV4DUvMdwN6CbkB1yj8i7arTGiTN5eok1kQwdnnNWSDZfIUySQY+J3d5KjWn0g==",
      "path": "system.linq/4.1.0",
      "hashPath": "system.linq.4.1.0.nupkg.sha512"
    },
    "System.Linq.Expressions/4.1.0": {
      "type": "package",
      "serviceable": true,
      "sha512": "sha512-I+y02iqkgmCAyfbqOmSDOgqdZQ5tTj80Akm5BPSS8EeB0VGWdy6X1KCoYe8Pk6pwDoAKZUOdLVxnTJcExiv5zw==",
      "path": "system.linq.expressions/4.1.0",
      "hashPath": "system.linq.expressions.4.1.0.nupkg.sha512"
    },
    "System.Linq.Queryable/4.0.1": {
      "type": "package",
      "serviceable": true,
      "sha512": "sha512-Yn/WfYe9RoRfmSLvUt2JerP0BTGGykCZkQPgojaxgzF2N0oPo+/AhB8TXOpdCcNlrG3VRtsamtK2uzsp3cqRVw==",
      "path": "system.linq.queryable/4.0.1",
      "hashPath": "system.linq.queryable.4.0.1.nupkg.sha512"
    },
    "System.Memory/4.5.0": {
      "type": "package",
      "serviceable": true,
      "sha512": "sha512-m0psCSpUxTGfvwyO0i03ajXVhgBqyXlibXz0Mo1dtKGjaHrXFLnuQ8rNBTmWRqbfRjr4eC6Wah4X5FfuFDu5og==",
      "path": "system.memory/4.5.0",
      "hashPath": "system.memory.4.5.0.nupkg.sha512"
    },
    "System.Numerics.Vectors/4.4.0": {
      "type": "package",
      "serviceable": true,
      "sha512": "sha512-UiLzLW+Lw6HLed1Hcg+8jSRttrbuXv7DANVj0DkL9g6EnnzbL75EB7EWsw5uRbhxd/4YdG8li5XizGWepmG3PQ==",
      "path": "system.numerics.vectors/4.4.0",
      "hashPath": "system.numerics.vectors.4.4.0.nupkg.sha512"
    },
    "System.ObjectModel/4.0.12": {
      "type": "package",
      "serviceable": true,
      "sha512": "sha512-tAgJM1xt3ytyMoW4qn4wIqgJYm7L7TShRZG4+Q4Qsi2PCcj96pXN7nRywS9KkB3p/xDUjc2HSwP9SROyPYDYKQ==",
      "path": "system.objectmodel/4.0.12",
      "hashPath": "system.objectmodel.4.0.12.nupkg.sha512"
    },
    "System.Reflection/4.3.0": {
      "type": "package",
      "serviceable": true,
      "sha512": "sha512-KMiAFoW7MfJGa9nDFNcfu+FpEdiHpWgTcS2HdMpDvt9saK3y/G4GwprPyzqjFH9NTaGPQeWNHU+iDlDILj96aQ==",
      "path": "system.reflection/4.3.0",
      "hashPath": "system.reflection.4.3.0.nupkg.sha512"
    },
    "System.Reflection.Emit/4.3.0": {
      "type": "package",
      "serviceable": true,
      "sha512": "sha512-228FG0jLcIwTVJyz8CLFKueVqQK36ANazUManGaJHkO0icjiIypKW7YLWLIWahyIkdh5M7mV2dJepllLyA1SKg==",
      "path": "system.reflection.emit/4.3.0",
      "hashPath": "system.reflection.emit.4.3.0.nupkg.sha512"
    },
    "System.Reflection.Emit.ILGeneration/4.3.0": {
      "type": "package",
      "serviceable": true,
      "sha512": "sha512-59tBslAk9733NXLrUJrwNZEzbMAcu8k344OYo+wfSVygcgZ9lgBdGIzH/nrg3LYhXceynyvTc8t5/GD4Ri0/ng==",
      "path": "system.reflection.emit.ilgeneration/4.3.0",
      "hashPath": "system.reflection.emit.ilgeneration.4.3.0.nupkg.sha512"
    },
    "System.Reflection.Emit.Lightweight/4.0.1": {
      "type": "package",
      "serviceable": true,
      "sha512": "sha512-sSzHHXueZ5Uh0OLpUQprhr+ZYJrLPA2Cmr4gn0wj9+FftNKXx8RIMKvO9qnjk2ebPYUjZ+F2ulGdPOsvj+MEjA==",
      "path": "system.reflection.emit.lightweight/4.0.1",
      "hashPath": "system.reflection.emit.lightweight.4.0.1.nupkg.sha512"
    },
    "System.Reflection.Extensions/4.0.1": {
      "type": "package",
      "serviceable": true,
      "sha512": "sha512-GYrtRsZcMuHF3sbmRHfMYpvxZoIN2bQGrYGerUiWLEkqdEUQZhH3TRSaC/oI4wO0II1RKBPlpIa1TOMxIcOOzQ==",
      "path": "system.reflection.extensions/4.0.1",
      "hashPath": "system.reflection.extensions.4.0.1.nupkg.sha512"
    },
    "System.Reflection.Primitives/4.3.0": {
      "type": "package",
      "serviceable": true,
      "sha512": "sha512-5RXItQz5As4xN2/YUDxdpsEkMhvw3e6aNveFXUn4Hl/udNTCNhnKp8lT9fnc3MhvGKh1baak5CovpuQUXHAlIA==",
      "path": "system.reflection.primitives/4.3.0",
      "hashPath": "system.reflection.primitives.4.3.0.nupkg.sha512"
    },
    "System.Reflection.TypeExtensions/4.1.0": {
      "type": "package",
      "serviceable": true,
      "sha512": "sha512-tsQ/ptQ3H5FYfON8lL4MxRk/8kFyE0A+tGPXmVP967cT/gzLHYxIejIYSxp4JmIeFHVP78g/F2FE1mUUTbDtrg==",
      "path": "system.reflection.typeextensions/4.1.0",
      "hashPath": "system.reflection.typeextensions.4.1.0.nupkg.sha512"
    },
    "System.Resources.ResourceManager/4.0.1": {
      "type": "package",
      "serviceable": true,
      "sha512": "sha512-TxwVeUNoTgUOdQ09gfTjvW411MF+w9MBYL7AtNVc+HtBCFlutPLhUCdZjNkjbhj3bNQWMdHboF0KIWEOjJssbA==",
      "path": "system.resources.resourcemanager/4.0.1",
      "hashPath": "system.resources.resourcemanager.4.0.1.nupkg.sha512"
    },
    "System.Runtime/4.3.0": {
      "type": "package",
      "serviceable": true,
      "sha512": "sha512-JufQi0vPQ0xGnAczR13AUFglDyVYt4Kqnz1AZaiKZ5+GICq0/1MH/mO/eAJHt/mHW1zjKBJd7kV26SrxddAhiw==",
      "path": "system.runtime/4.3.0",
      "hashPath": "system.runtime.4.3.0.nupkg.sha512"
    },
    "System.Runtime.CompilerServices.Unsafe/4.5.0": {
      "type": "package",
      "serviceable": true,
      "sha512": "sha512-YrzNWduCDHhUaSRBxHxL11UkM2fD6y8hITHis4/LbQZ6vj3vdRjoH3IoPWWC9uDXK2wHIqn+b5gv1Np/VKyM1g==",
      "path": "system.runtime.compilerservices.unsafe/4.5.0",
      "hashPath": "system.runtime.compilerservices.unsafe.4.5.0.nupkg.sha512"
    },
    "System.Runtime.Extensions/4.1.0": {
      "type": "package",
      "serviceable": true,
      "sha512": "sha512-CUOHjTT/vgP0qGW22U4/hDlOqXmcPq5YicBaXdUR2UiUoLwBT+olO6we4DVbq57jeX5uXH2uerVZhf0qGj+sVQ==",
      "path": "system.runtime.extensions/4.1.0",
      "hashPath": "system.runtime.extensions.4.1.0.nupkg.sha512"
    },
    "System.Security.AccessControl/4.5.0": {
      "type": "package",
      "serviceable": true,
      "sha512": "sha512-vW8Eoq0TMyz5vAG/6ce483x/CP83fgm4SJe5P8Tb1tZaobcvPrbMEL7rhH1DRdrYbbb6F0vq3OlzmK0Pkwks5A==",
      "path": "system.security.accesscontrol/4.5.0",
      "hashPath": "system.security.accesscontrol.4.5.0.nupkg.sha512"
    },
    "System.Security.Cryptography.Cng/4.4.0": {
      "type": "package",
      "serviceable": true,
      "sha512": "sha512-3d/d+7sdNpfYfqJFzuE/o6Pl/reaMbH7rlUMNvtm4+XVYHY32tdFa45yjB3vhb6q0YY+IV8GUuiBPRsBFP3yaw==",
      "path": "system.security.cryptography.cng/4.4.0",
      "hashPath": "system.security.cryptography.cng.4.4.0.nupkg.sha512"
    },
    "System.Security.Cryptography.Pkcs/4.5.0": {
      "type": "package",
      "serviceable": true,
      "sha512": "sha512-TGQX51gxpY3K3I6LJlE2LAftVlIMqJf0cBGhz68Y89jjk3LJCB6SrwiD+YN1fkqemBvWGs+GjyMJukl6d6goyQ==",
      "path": "system.security.cryptography.pkcs/4.5.0",
      "hashPath": "system.security.cryptography.pkcs.4.5.0.nupkg.sha512"
    },
    "System.Security.Cryptography.Xml/4.5.0": {
      "type": "package",
      "serviceable": true,
      "sha512": "sha512-i2Jn6rGXR63J0zIklImGRkDIJL4b1NfPSEbIVHBlqoIb12lfXIigCbDRpDmIEzwSo/v1U5y/rYJdzZYSyCWxvg==",
      "path": "system.security.cryptography.xml/4.5.0",
      "hashPath": "system.security.cryptography.xml.4.5.0.nupkg.sha512"
    },
    "System.Security.Permissions/4.5.0": {
      "type": "package",
      "serviceable": true,
      "sha512": "sha512-9gdyuARhUR7H+p5CjyUB/zPk7/Xut3wUSP8NJQB6iZr8L3XUXTMdoLeVAg9N4rqF8oIpE7MpdqHdDHQ7XgJe0g==",
      "path": "system.security.permissions/4.5.0",
      "hashPath": "system.security.permissions.4.5.0.nupkg.sha512"
    },
    "System.Security.Principal.Windows/4.5.0": {
      "type": "package",
      "serviceable": true,
      "sha512": "sha512-U77HfRXlZlOeIXd//Yoj6Jnk8AXlbeisf1oq1os+hxOGVnuG+lGSfGqTwTZBoORFF6j/0q7HXIl8cqwQ9aUGqQ==",
      "path": "system.security.principal.windows/4.5.0",
      "hashPath": "system.security.principal.windows.4.5.0.nupkg.sha512"
    },
    "System.Text.Encoding/4.3.0": {
      "type": "package",
      "serviceable": true,
      "sha512": "sha512-BiIg+KWaSDOITze6jGQynxg64naAPtqGHBwDrLaCtixsa5bKiR8dpPOHA7ge3C0JJQizJE+sfkz1wV+BAKAYZw==",
      "path": "system.text.encoding/4.3.0",
      "hashPath": "system.text.encoding.4.3.0.nupkg.sha512"
    },
    "System.Text.Encodings.Web/4.5.0": {
      "type": "package",
      "serviceable": true,
      "sha512": "sha512-Xg4G4Indi4dqP1iuAiMSwpiWS54ZghzR644OtsRCm/m/lBMG8dUBhLVN7hLm8NNrNTR+iGbshCPTwrvxZPlm4g==",
      "path": "system.text.encodings.web/4.5.0",
      "hashPath": "system.text.encodings.web.4.5.0.nupkg.sha512"
    },
    "System.Threading/4.0.11": {
      "type": "package",
      "serviceable": true,
      "sha512": "sha512-N+3xqIcg3VDKyjwwCGaZ9HawG9aC6cSDI+s7ROma310GQo8vilFZa86hqKppwTHleR/G0sfOzhvgnUxWCR/DrQ==",
      "path": "system.threading/4.0.11",
      "hashPath": "system.threading.4.0.11.nupkg.sha512"
    },
    "System.Threading.Tasks/4.3.0": {
      "type": "package",
      "serviceable": true,
      "sha512": "sha512-LbSxKEdOUhVe8BezB/9uOGGppt+nZf6e1VFyw6v3DN6lqitm0OSn2uXMOdtP0M3W4iMcqcivm2J6UgqiwwnXiA==",
      "path": "system.threading.tasks/4.3.0",
      "hashPath": "system.threading.tasks.4.3.0.nupkg.sha512"
    },
    "System.Threading.Tasks.Extensions/4.3.0": {
      "type": "package",
      "serviceable": true,
      "sha512": "sha512-npvJkVKl5rKXrtl1Kkm6OhOUaYGEiF9wFbppFRWSMoApKzt2PiPHT2Bb8a5sAWxprvdOAtvaARS9QYMznEUtug==",
      "path": "system.threading.tasks.extensions/4.3.0",
      "hashPath": "system.threading.tasks.extensions.4.3.0.nupkg.sha512"
    },
    "Axiobat.Application/1.0.0": {
      "type": "project",
      "serviceable": false,
      "sha512": ""
    },
    "Axiobat.Domain/1.0.0": {
      "type": "project",
      "serviceable": false,
      "sha512": ""
    }
  }
}